Epoch 0: 2193 ms
Loss = 297.7524404546546
P = 0.8793969849246231; R = 0.9722222222222222; F1 = 0.9234828496042217
Epoch 1: 494 ms
Loss = 214.1390998963755
P = 0.8743718592964824; R = 0.9666666666666667; F1 = 0.9182058047493403
Epoch 2: 480 ms
Loss = 178.22837900572947
P = 0.8787878787878788; R = 0.9666666666666667; F1 = 0.9206349206349207
Epoch 3: 486 ms
Loss = 157.65970729838716
P = 0.8781725888324873; R = 0.9611111111111111; F1 = 0.9177718832891246
Epoch 4: 497 ms
Loss = 143.79937299661486
P = 0.8781725888324873; R = 0.9611111111111111; F1 = 0.9177718832891246
Epoch 5: 491 ms
Loss = 133.59307452675444
P = 0.8781725888324873; R = 0.9611111111111111; F1 = 0.9177718832891246
Epoch 6: 483 ms
Loss = 125.62786735607968
P = 0.8737373737373737; R = 0.9611111111111111; F1 = 0.9153439153439152
Epoch 7: 471 ms
Loss = 119.26027506286957
P = 0.8730964467005076; R = 0.9555555555555556; F1 = 0.9124668435013261
Epoch 8: 478 ms
Loss = 114.08894412777161
P = 0.8775510204081632; R = 0.9555555555555556; F1 = 0.9148936170212767
Epoch 9: 476 ms
Loss = 109.86533522607508
P = 0.8769230769230769; R = 0.95; F1 = 0.912
Epoch 10: 470 ms
Loss = 106.38949016312395
P = 0.8769230769230769; R = 0.95; F1 = 0.912
Epoch 11: 469 ms
Loss = 103.53150807543126
P = 0.8769230769230769; R = 0.95; F1 = 0.912
Epoch 12: 455 ms
Loss = 101.1650631065423
P = 0.8769230769230769; R = 0.95; F1 = 0.912
Epoch 13: 468 ms
Loss = 99.17850390296702
P = 0.8769230769230769; R = 0.95; F1 = 0.912
Epoch 14: 483 ms
Loss = 97.5147745368874
P = 0.8769230769230769; R = 0.95; F1 = 0.912
Epoch 15: 470 ms
Loss = 96.119038482117
P = 0.8775510204081632; R = 0.9555555555555556; F1 = 0.9148936170212767
Epoch 16: 474 ms
Loss = 94.93240346586519
P = 0.8775510204081632; R = 0.9555555555555556; F1 = 0.9148936170212767
Epoch 17: 478 ms
Loss = 93.93336246598933
P = 0.8769230769230769; R = 0.95; F1 = 0.912
Epoch 18: 459 ms
Loss = 93.07983905954318
P = 0.8769230769230769; R = 0.95; F1 = 0.912
Epoch 19: 480 ms
Loss = 92.34957258888191
P = 0.8769230769230769; R = 0.95; F1 = 0.912
